[
  {
    "id": "default",
    "name": "Default Slice",
    "docURL": "...",
    "version": "sktwi1xtmkfgx8626",
    "description": "Solution Speed Meter",
    "primary": {
      "title": [
        {
          "type": "heading2",
          "text": "Iterate e-business portals",
          "spans": []
        }
      ],
      "description": [
        {
          "type": "heading1",
          "text": "Enable frictionless experiences",
          "spans": []
        }
      ],
      "button": "facilitate granular methodologies",
      "link": {
        "link_type": "Web",
        "url": "https://slicemachine.dev"
      }
    },
    "items": [
      {
        "title": [
          {
            "type": "heading3",
            "text": "Utilize clicks-and-mortar infrastructures",
            "spans": []
          }
        ]
      },
      {
        "title": [
          {
            "type": "heading3",
            "text": "Transition leading-edge convergence",
            "spans": []
          }
        ]
      },
      {
        "title": [
          {
            "type": "heading3",
            "text": "Productize world-class users",
            "spans": []
          }
        ]
      }
    ],
    "slice_type": "solution_speed_meter"
  }
]